…
--- &twocol

## Mann-Whitney U-Test

Example: oxygen saturation for 2 groups of patients (N= 100 per group)


  
*** =left

**Group1**


```
## # A tibble: 100 x 1
##       O2
##    <dbl>
##  1    97
##  2    97
##  3    97
##  4    99
##  5    99
##  6    97
##  7    98
##  8    98
##  9    98
## 10    97
## # … with 90 more rows
```

*** =right

**Group2**


```
## # A tibble: 100 x 1
##       O2
##    <dbl>
##  1    98
##  2    97
##  3    96
##  4    96
##  5    98
##  6    98
##  7    96
##  8    97
##  9    97
## 10    98
## # … with 90 more rows
```
…
